{
    "_links": {
        "self": {
            "href": "http:\/\/sites\/default\/media\/10\/edit?_format=hal_json"
        },
        "type": {
            "href": "http:\/\/drupal.org\/rest\/type\/media\/remote_video"
        },
        "http:\/\/drupal.org\/rest\/relation\/media\/remote_video\/revision_user": [
            {
                "href": "http:\/\/sites\/default\/user\/1?_format=hal_json"
            }
        ],
        "http:\/\/drupal.org\/rest\/relation\/media\/remote_video\/uid": [
            {
                "href": "http:\/\/sites\/default\/user\/1?_format=hal_json",
                "lang": "en"
            }
        ],
        "http:\/\/drupal.org\/rest\/relation\/media\/remote_video\/thumbnail": [
            {
                "href": "",
                "lang": "en"
            }
        ]
    },
    "mid": [
        {
        }
    ],
    "uuid": [
        {
            "value": "f31eb037-2e2f-407d-91a8-a559b23c4059"
        }
    ],
    "vid": [
        {
        }
    ],
    "langcode": [
        {
            "value": "en",
            "lang": "en"
        }
    ],
    "bundle": [
        {
            "target_id": "remote_video"
        }
    ],
    "revision_created": [
        {
            "value": "2020-04-19T21:29:08+00:00",
            "format": "Y-m-d\\TH:i:sP"
        }
    ],
    "_embedded": {
        "http:\/\/drupal.org\/rest\/relation\/media\/remote_video\/revision_user": [
            {
                "_links": {
                    "self": {
                        "href": "http:\/\/sites\/default\/user\/1?_format=hal_json"
                    },
                    "type": {
                        "href": "http:\/\/drupal.org\/rest\/type\/user\/user"
                    }
                },
                "uuid": [
                    {
                        "value": "b83b76be-0b4d-4a27-ad00-26f961d0ca38"
                    }
                ]
            }
        ],
        "http:\/\/drupal.org\/rest\/relation\/media\/remote_video\/uid": [
            {
                "_links": {
                    "self": {
                        "href": "http:\/\/sites\/default\/user\/1?_format=hal_json"
                    },
                    "type": {
                        "href": "http:\/\/drupal.org\/rest\/type\/user\/user"
                    }
                },
                "uuid": [
                    {
                        "value": "b83b76be-0b4d-4a27-ad00-26f961d0ca38"
                    }
                ],
                "lang": "en"
            }
        ],
        "http:\/\/drupal.org\/rest\/relation\/media\/remote_video\/thumbnail": [
            {
                "_links": {
                    "self": {
                        "href": ""
                    },
                    "type": {
                        "href": "http:\/\/drupal.org\/rest\/type\/file\/file"
                    }
                },
                "uuid": [
                    {
                        "value": "82147efe-72a1-4f8f-af4d-90d9fa23a19f"
                    }
                ],
                "lang": "en",
                "alt": "",
                "title": null,
                "width": "480",
                "height": "360"
            }
        ]
    },
    "status": [
        {
            "value": true,
            "lang": "en"
        }
    ],
    "name": [
        {
            "value": "Sample video media gallery",
            "lang": "en"
        }
    ],
    "created": [
        {
            "value": "2020-04-19T21:29:08+00:00",
            "lang": "en",
            "format": "Y-m-d\\TH:i:sP"
        }
    ],
    "changed": [
        {
            "value": "2020-04-19T21:29:08+00:00",
            "lang": "en",
            "format": "Y-m-d\\TH:i:sP"
        }
    ],
    "default_langcode": [
        {
            "value": true,
            "lang": "en"
        }
    ],
    "revision_translation_affected": [
        {
            "value": true,
            "lang": "en"
        }
    ],
    "metatag": [
        {
            "value": {
                "title": "| Sector",
                "shortlink": "http:\/\/sites\/default\/node\/10",
                "canonical_url": "http:\/\/sites\/default\/node\/10",
                "og_url": "http:\/\/sites\/default\/node\/10"
            }
        }
    ],
    "path": [
        {
            "alias": null,
            "pid": null,
            "langcode": "en",
            "lang": "en"
        }
    ],
    "field_credit_or_caption": [
        {
            "value": "<p>Use the&nbsp;<em>credit or caption<\/em>&nbsp;field to add&nbsp;your copyright or credit notice.<\/p>\r\n",
            "format": "basic_html",
            "processed": "<p>Use the\u00a0<em>credit or caption<\/em>\u00a0field to add\u00a0your copyright or credit notice.<\/p>",
            "lang": "en"
        }
    ],
    "field_description": [
        {
            "value": "<p>Use the&nbsp;<em>description<\/em>&nbsp;field to add supporting text.<\/p>\r\n",
            "format": "basic_html",
            "processed": "<p>Use the\u00a0<em>description<\/em>\u00a0field to add supporting text.<\/p>",
            "lang": "en"
        }
    ],
    "field_media_oembed_video": [
        {
            "value": "https:\/\/youtu.be\/swGBntnjMiQ",
            "lang": "en"
        }
    ],
    "field_title": [
        {
            "value": "Sample video media gallery",
            "lang": "en"
        }
    ]
}
